Proyecto_1_VS/src/design/ondas.vcd
$date
	Sat Apr 11 12:42:52 2026
$end
$version
	Icarus Verilog
$end
$timescale
	1ps
$end
$scope module tb_receptor_display $end
$var wire 4 ! sel_out [3:0] $end
$var wire 7 " seg7_out [6:0] $end
$var wire 7 # rx_raw [6:0] $end
$var wire 3 $ rx_err [2:0] $end
$var wire 4 % rx_data [3:0] $end
$var wire 4 & led_out [3:0] $end
$var wire 4 ' int_sel_out [3:0] $end
$var wire 7 ( int_seg7_out [6:0] $end
$var wire 4 ) int_led_out [3:0] $end
$var reg 1 * int_sel_sw $end
$var reg 4 + led_data [3:0] $end
$var reg 7 , rx_in [6:0] $end
$var reg 4 - seg7_data [3:0] $end
$var reg 4 . sel_data [3:0] $end
$var reg 3 / sel_err [2:0] $end
$var reg 1 0 sel_sw $end
$var integer 32 1 test_count [31:0] $end
$var integer 32 2 test_errors [31:0] $end
$scope function hamming_encode $end
$var reg 1 3 d1 $end
$var reg 1 4 d2 $end
$var reg 1 5 d3 $end
$var reg 1 6 d4 $end
$var reg 4 7 data [3:0] $end
$var reg 1 8 p1 $end
$var reg 1 9 p2 $end
$var reg 1 : p3 $end
$upscope $end
$scope module uut_int_led $end
$var wire 4 ; leds [3:0] $end
$var wire 4 < data [3:0] $end
$upscope $end
$scope module uut_int_seg7 $end
$var wire 4 = data [3:0] $end
$var reg 7 > seg7 [6:0] $end
$upscope $end
$scope module uut_int_sel $end
$var wire 1 * sel $end
$var wire 4 ? out [3:0] $end
$var wire 4 @ err_pos_ext [3:0] $end
$var wire 3 A err_pos [2:0] $end
$var wire 4 B data [3:0] $end
$upscope $end
$scope module uut_led $end
$var wire 4 C data [3:0] $end
$var wire 4 D leds [3:0] $end
$upscope $end
$scope module uut_rx $end
$var wire 3 E err [2:0] $end
$var wire 7 F in [6:0] $end
$var wire 3 G syn [2:0] $end
$var wire 7 H raw [6:0] $end
$var wire 4 I data [3:0] $end
$scope module cor $end
$var wire 7 J in [6:0] $end
$var wire 3 K syn [2:0] $end
$var wire 3 L err [2:0] $end
$var wire 4 M data [3:0] $end
$var wire 7 N corr [6:0] $end
$upscope $end
$scope module dec $end
$var wire 7 O data [6:0] $end
$var wire 7 P in [6:0] $end
$var wire 1 Q s0 $end
$var wire 1 R s1 $end
$var wire 1 S s2 $end
$var wire 3 T err [2:0] $end
$upscope $end
$upscope $end
$scope module uut_seg7 $end
$var wire 4 U data [3:0] $end
$var reg 7 V seg7 [6:0] $end
$upscope $end
$scope module uut_sel $end
$var wire 4 W data [3:0] $end
$var wire 3 X err_pos [2:0] $end
$var wire 1 0 sel $end
$var wire 4 Y out [3:0] $end
$var wire 4 Z err_pos_ext [3:0] $end
$upscope $end
$scope begin integ_loop $end
$var integer 32 [ dato [31:0] $end
$var integer 32 \ pos [31:0] $end
$upscope $end
$scope begin led_loop $end
$var integer 32 ] i [31:0] $end
$upscope $end
$scope task check_integracion $end
$var reg 7 ^ codificado [6:0] $end
$var reg 7 _ con_error [6:0] $end
$var reg 4 ` dato_original [3:0] $end
$var reg 4 a esperado_data [3:0] $end
$var reg 1 b modo_sel $end
$var reg 3 c pos_error [2:0] $end
$var integer 32 d bit_pos [31:0] $end
$upscope $end
$scope task check_led $end
$var reg 4 e valor [3:0] $end
$upscope $end
$scope task check_seg7 $end
$var reg 7 f esperado [6:0] $end
$var reg 4 g valor [3:0] $end
$upscope $end
$scope task check_selector $end
$var reg 4 h dato [3:0] $end
$var reg 3 i err [2:0] $end
$var reg 4 j esperado [3:0] $end
$var reg 1 k sw $end
$upscope $end
$upscope $end
$enddefinitions $end
$comment Show the parameter values. $end
$dumpall
$end
#0
$dumpvars
xk
bx j
bx i
bx h
b0 g
b1000000 f
bx e
bx d
bx c
xb
bx a
bx `
bx _
bx ^
bx ]
bx \
bx [
b0xxx Z
bx Y
bx X
bx W
b1000000 V
b0 U
bx T
xS
xR
xQ
bx P
bx O
bx N
bx M
bx L
bx K
bx J
bx I
bx H
bx G
bx F
bx E
bx D
bx C
bx B
bx A
b0xxx @
bx ?
bx >
bx =
bx <
bx ;
x:
x9
x8
bx 7
x6
x5
x4
x3
b0 2
b0 1
x0
bx /
bx .
b0 -
bx ,
bx +
x*
bx )
bx (
bx '
bx &
bx %
bx $
bx #
b1000000 "
bx !
$end
#10000
b1111001 "
b1111001 V
b1 -
b1 U
b1111001 f
b1 g
b1 1
#20000
b100100 "
b100100 V
b10 -
b10 U
b100100 f
b10 g
b10 1
#30000
b110000 "
b110000 V
b11 -
b11 U
b110000 f
b11 g
b11 1
#40000
b11001 "
b11001 V
b100 -
b100 U
b11001 f
b100 g
b100 1
#50000
b10010 "
b10010 V
b101 -
b101 U
b10010 f
b101 g
b101 1
#60000
b10 "
b10 V
b110 -
b110 U
b10 f
b110 g
b110 1
#70000
b1111000 "
b1111000 V
b111 -
b111 U
b1111000 f
b111 g
b111 1
#80000
b0 "
b0 V
b1000 -
b1000 U
b0 f
b1000 g
b1000 1
#90000
b10000 "
b10000 V
b1001 -
b1001 U
b10000 f
b1001 g
b1001 1
#100000
b1000 "
b1000 V
b1010 -
b1010 U
b1000 f
b1010 g
b1010 1
#110000
b11 "
b11 V
b1011 -
b1011 U
b11 f
b1011 g
b1011 1
#120000
b1000110 "
b1000110 V
b1100 -
b1100 U
b1000110 f
b1100 g
b1100 1
#130000
b100001 "
b100001 V
b1101 -
b1101 U
b100001 f
b1101 g
b1101 1
#140000
b110 "
b110 V
b1110 -
b1110 U
b110 f
b1110 g
b1110 1
#150000
b1110 "
b1110 V
b1111 -
b1111 U
b1110 f
b1111 g
b1111 1
#160000
b0 &
b0 D
b0 +
b0 C
b0 e
b0 ]
b10000 1
#170000
b1 &
b1 D
b1 +
b1 C
b1 e
b1 ]
b10001 1
#180000
b10 &
b10 D
b10 +
b10 C
b10 e
b10 ]
b10010 1
#190000
b11 &
b11 D
b11 +
b11 C
b11 e
b11 ]
b10011 1
#200000
b100 &
b100 D
b100 +
b100 C
b100 e
b100 ]
b10100 1
#210000
b101 &
b101 D
b101 +
b101 C
b101 e
b101 ]
b10101 1
#220000
b110 &
b110 D
b110 +
b110 C
b110 e
b110 ]
b10110 1
#230000
b111 &
b111 D
b111 +
b111 C
b111 e
b111 ]
b10111 1
#240000
b1000 &
b1000 D
b1000 +
b1000 C
b1000 e
b1000 ]
b11000 1
#250000
b1001 &
b1001 D
b1001 +
b1001 C
b1001 e
b1001 ]
b11001 1
#260000
b1010 &
b1010 D
b1010 +
b1010 C
b1010 e
b1010 ]
b11010 1
#270000
b1011 &
b1011 D
b1011 +
b1011 C
b1011 e
b1011 ]
b11011 1
#280000
b1100 &
b1100 D
b1100 +
b1100 C
b1100 e
b1100 ]
b11100 1
#290000
b1101 &
b1101 D
b1101 +
b1101 C
b1101 e
b1101 ]
b11101 1
#300000
b1110 &
b1110 D
b1110 +
b1110 C
b1110 e
b1110 ]
b11110 1
#310000
b1111 &
b1111 D
b1111 +
b1111 C
b1111 e
b1111 ]
b11111 1
#320000
b1010 !
b1010 Y
00
b11 Z
b11 /
b11 X
b1010 .
b1010 W
b1010 j
0k
b11 i
b1010 h
b10000 ]
b100000 1
#330000
b1 !
b1 Y
b101 Z
b101 /
b101 X
b1 .
b1 W
b1 j
b101 i
b1 h
b100001 1
#340000
b1111 !
b1111 Y
b111 Z
b111 /
b111 X
b1111 .
b1111 W
b1111 j
b111 i
b1111 h
b100010 1
#350000
b0 !
b0 Y
b0 Z
b0 /
b0 X
b0 .
b0 W
b0 j
b0 i
b0 h
b100011 1
#360000
b11 !
b11 Y
10
b11 Z
b11 /
b11 X
b1010 .
b1010 W
b11 j
1k
b11 i
b1010 h
b100100 1
#370000
b101 !
b101 Y
b101 Z
b101 /
b101 X
b1 .
b1 W
b101 j
b101 i
b1 h
b100101 1
#380000
b111 !
b111 Y
b111 Z
b111 /
b111 X
b1111 .
b1111 W
b111 j
b111 i
b1111 h
b100110 1
#390000
b0 !
b0 Y
b0 Z
b0 /
b0 X
b0 .
b0 W
b0 j
b0 i
b0 h
b100111 1
#400000
b1 !
b1 Y
b1 Z
b1 /
b1 X
b1100 .
b1100 W
b1 j
b1 i
b1100 h
b101000 1
#410000
b10 !
b10 Y
b10 Z
b10 /
b10 X
b10 j
b10 i
b101001 1
#420000
b100 !
b100 Y
b100 Z
b100 /
b100 X
b100 j
b100 i
b101010 1
#430000
b110 !
b110 Y
b110 Z
b110 /
b110 X
b110 j
b110 i
b101011 1
#440000
b1011 !
b1011 Y
00
b10 Z
b10 /
b10 X
b1011 .
b1011 W
b101100 1
#450000
b10 !
b10 Y
10
#460000
b1000000 (
b1000000 >
b0 '
b0 =
b0 ?
b0 )
b0 ;
b0 %
b0 <
b0 B
b0 I
b0 M
b0 N
0Q
0R
b0 K
b0 @
b0 $
b0 A
b0 E
b0 G
b0 L
b0 T
0S
0*
b0 #
b0 H
b0 O
b0 ,
b0 F
b0 J
b0 P
b0 a
b0 _
b0 ^
0:
09
08
06
05
04
03
b0 7
0b
b0 c
b0 `
b0 [
#480000
b1 K
b1 @
b1 $
b1 A
b1 E
b1 G
b1 L
b1 T
1Q
b0 N
b1 #
b1 H
b1 O
b1 ,
b1 F
b1 J
b1 P
b1 _
b0 d
b1 c
b1 \
b101111 1
#500000
b1111001 (
b1111001 >
b1 '
b1 =
b1 ?
1*
b1 _
1b
b110010 1
#520000
0Q
b10 K
b10 @
b10 $
b10 A
b10 E
b10 G
b10 L
b10 T
1R
b1000000 (
b1000000 >
b0 N
b0 '
b0 =
b0 ?
0*
b10 #
b10 H
b10 O
b10 ,
b10 F
b10 J
b10 P
b10 _
b1 d
0b
b10 c
b10 \
b110101 1
#540000
b100100 (
b100100 >
b10 '
b10 =
b10 ?
1*
b10 _
1b
b111000 1
#560000
b11 K
b11 @
b11 $
b11 A
b11 E
b11 G
b11 L
b11 T
1Q
b0 )
b0 ;
b0 %
b0 <
b0 B
b0 I
b0 M
b1000000 (
b1000000 >
b0 N
b0 '
b0 =
b0 ?
0*
b100 #
b100 H
b100 O
b100 ,
b100 F
b100 J
b100 P
b100 _
b10 d
0b
b11 c
b11 \
b111011 1
#580000
b110000 (
b110000 >
b11 '
b11 =
b11 ?
1*
b100 _
1b
b111110 1
#600000
b0 )
b0 ;
b0 %
b0 <
b0 B
b0 I
b0 M
0Q
0R
b100 K
b100 @
b100 $
b100 A
b100 E
b100 G
b100 L
b100 T
1S
b1000000 (
b1000000 >
b0 N
b0 '
b0 =
b0 ?
0*
b1000 #
b1000 H
b1000 O
b1000 ,
b1000 F
b1000 J
b1000 P
b1000 _
b11 d
0b
b100 c
b100 \
b1000001 1
#620000
b11001 (
b11001 >
b100 '
b100 =
b100 ?
1*
b1000 _
1b
b1000100 1
#640000
b0 )
b0 ;
b0 %
b0 <
b0 B
b0 I
b0 M
b101 K
b101 @
b101 $
b101 A
b101 E
b101 G
b101 L
b101 T
1Q
b1000000 (
b1000000 >
b0 N
b0 '
b0 =
b0 ?
0*
b10000 #
b10000 H
b10000 O
b10000 ,
b10000 F
b10000 J
b10000 P
b10000 _
b100 d
0b
b101 c
b101 \
b1000111 1
#660000
b10010 (
b10010 >
b101 '
b101 =
b101 ?
1*
b10000 _
1b
b1001010 1
#680000
b0 )
b0 ;
b0 %
b0 <
b0 B
b0 I
b0 M
0Q
1R
b110 K
b110 @
b110 $
b110 A
b110 E
b110 G
b110 L
b110 T
1S
b1000000 (
b1000000 >
b0 N
b0 '
b0 =
b0 ?
0*
b100000 #
b100000 H
b100000 O
b100000 ,
b100000 F
b100000 J
b100000 P
b100000 _
b101 d
0b
b110 c
b110 \
b1001101 1
#700000
b10 (
b10 >
b110 '
b110 =
b110 ?
1*
b100000 _
1b
b1010000 1
#720000
b0 )
b0 ;
b0 %
b0 <
b0 B
b0 I
b0 M
b1000000 (
b1000000 >
b0 N
1Q
1R
b111 K
b111 @
b111 $
b111 A
b111 E
b111 G
b111 L
b111 T
1S
b0 '
b0 =
b0 ?
0*
b1000000 #
b1000000 H
b1000000 O
b1000000 ,
b1000000 F
b1000000 J
b1000000 P
b1000000 _
b110 d
0b
b111 c
b111 \
b1010011 1
#740000
b1111000 (
b1111000 >
b111 '
b111 =
b111 ?
1*
b1000000 _
1b
b1010110 1
#760000
b1 )
b1 ;
b1 %
b1 <
b1 B
b1 I
b1 M
b1111001 (
b1111001 >
b111 N
0Q
0R
b0 K
b0 @
b0 $
b0 A
b0 E
b0 G
b0 L
b0 T
0S
b1 '
b1 =
b1 ?
0*
b111 #
b111 H
b111 O
b111 ,
b111 F
b111 J
b111 P
b1 a
b111 _
b111 ^
19
18
13
b1 7
0b
b0 c
b1 `
b1 [
b1000 \
b1011001 1
#780000
b1 K
b1 @
b1 $
b1 A
b1 E
b1 G
b1 L
b1 T
1Q
b111 N
b110 #
b110 H
b110 O
b110 ,
b110 F
b110 J
b110 P
b110 _
b0 d
b1 c
b1 \
b1011100 1
#800000
1*
b110 _
1b
b1011111 1
#820000
0Q
b10 K
b10 @
b10 $
b10 A
b10 E
b10 G
b10 L
b10 T
1R
b111 N
0*
b101 #
b101 H
b101 O
b101 ,
b101 F
b101 J
b101 P
b101 _
b1 d
0b
b10 c
b10 \
b1100010 1
#840000
b100100 (
b100100 >
b10 '
b10 =
b10 ?
1*
b101 _
1b
b1100101 1
#860000
b11 K
b11 @
b11 $
b11 A
b11 E
b11 G
b11 L
b11 T
1Q
b1 )
b1 ;
b1 %
b1 <
b1 B
b1 I
b1 M
b1111001 (
b1111001 >
b111 N
b1 '
b1 =
b1 ?
0*
b11 #
b11 H
b11 O
b11 ,
b11 F
b11 J
b11 P
b11 _
b10 d
0b
b11 c
b11 \
b1101000 1
#880000
b110000 (
b110000 >
b11 '
b11 =
b11 ?
1*
b11 _
1b
b1101011 1
#900000
b1 )
b1 ;
b1 %
b1 <
b1 B
b1 I
b1 M
0Q
0R
b100 K
b100 @
b100 $
b100 A
b100 E
b100 G
b100 L
b100 T
1S
b1111001 (
b1111001 >
b111 N
b1 '
b1 =
b1 ?
0*
b1111 #
b1111 H
b1111 O
b1111 ,
b1111 F
b1111 J
b1111 P
b1111 _
b11 d
0b
b100 c
b100 \
b1101110 1
#920000
b11001 (
b11001 >
b100 '
b100 =
b100 ?
1*
b1111 _
1b
b1110001 1
#940000
b1 )
b1 ;
b1 %
b1 <
b1 B
b1 I
b1 M
b101 K
b101 @
b101 $
b101 A
b101 E
b101 G
b101 L
b101 T
1Q
b1111001 (
b1111001 >
b111 N
b1 '
b1 =
b1 ?
0*
b10111 #
b10111 H
b10111 O
b10111 ,
b10111 F
b10111 J
b10111 P
b10111 _
b100 d
0b
b101 c
b101 \
b1110100 1
#960000
b10010 (
b10010 >
b101 '
b101 =
b101 ?
1*
b10111 _
1b
b1110111 1
#980000
b1 )
b1 ;
b1 %
b1 <
b1 B
b1 I
b1 M
0Q
1R
b110 K
b110 @
b110 $
b110 A
b110 E
b110 G
b110 L
b110 T
1S
b1111001 (
b1111001 >
b111 N
b1 '
b1 =
b1 ?
0*
b100111 #
b100111 H
b100111 O
b100111 ,
b100111 F
b100111 J
b100111 P
b100111 _
b101 d
0b
b110 c
b110 \
b1111010 1
#1000000
b10 (
b10 >
b110 '
b110 =
b110 ?
1*
b100111 _
1b
b1111101 1
#1020000
b1 )
b1 ;
b1 %
b1 <
b1 B
b1 I
b1 M
b1111001 (
b1111001 >
b111 N
1Q
1R
b111 K
b111 @
b111 $
b111 A
b111 E
b111 G
b111 L
b111 T
1S
b1 '
b1 =
b1 ?
0*
b1000111 #
b1000111 H
b1000111 O
b1000111 ,
b1000111 F
b1000111 J
b1000111 P
b1000111 _
b110 d
0b
b111 c
b111 \
b10000000 1
#1040000
b1111000 (
b1111000 >
b111 '
b111 =
b111 ?
1*
b1000111 _
1b
b10000011 1
#1060000
b10 )
b10 ;
b10 %
b10 <
b10 B
b10 I
b10 M
b100100 (
b100100 >
b11001 N
0Q
0R
b0 K
b0 @
b0 $
b0 A
b0 E
b0 G
b0 L
b0 T
0S
b10 '
b10 =
b10 ?
0*
b11001 #
b11001 H
b11001 O
b11001 ,
b11001 F
b11001 J
b11001 P
b10 a
b11001 _
b11001 ^
1:
09
14
03
b10 7
0b
b0 c
b10 `
b10 [
b1000 \
b10000110 1
#1080000
b1 K
b1 @
b1 $
b1 A
b1 E
b1 G
b1 L
b1 T
1Q
b11001 N
b11000 #
b11000 H
b11000 O
b11000 ,
b11000 F
b11000 J
b11000 P
b11000 _
b0 d
b1 c
b1 \
b10001001 1
#1100000
b1111001 (
b1111001 >
b1 '
b1 =
b1 ?
1*
b11000 _
1b
b10001100 1
#1120000
0Q
b10 K
b10 @
b10 $
b10 A
b10 E
b10 G
b10 L
b10 T
1R
b100100 (
b100100 >
b11001 N
b10 '
b10 =
b10 ?
0*
b11011 #
b11011 H
b11011 O
b11011 ,
b11011 F
b11011 J
b11011 P
b11011 _
b1 d
0b
b10 c
b10 \
b10001111 1
#1140000
1*
b11011 _
1b
b10010010 1
#1160000
b100100 (
b100100 >
b10 '
b10 =
b10 ?
b11 K
b11 @
b11 $
b11 A
b11 E
b11 G
b11 L
b11 T
1Q
b10 )
b10 ;
b10 %
b10 <
b10 B
b10 I
b10 M
b11001 N
0*
b11101 #
b11101 H
b11101 O
b11101 ,
b11101 F
b11101 J
b11101 P
b11101 _
b10 d
0b
b11 c
b11 \
b10010101 1
#1180000
b110000 (
b110000 >
b11 '
b11 =
b11 ?
1*
b11101 _
1b
b10011000 1
#1200000
b10 )
b10 ;
b10 %
b10 <
b10 B
b10 I
b10 M
0Q
0R
b100 K
b100 @
b100 $
b100 A
b100 E
b100 G
b100 L
b100 T
1S
b100100 (
b100100 >
b11001 N
b10 '
b10 =
b10 ?
0*
b10001 #
b10001 H
b10001 O
b10001 ,
b10001 F
b10001 J
b10001 P
b10001 _
b11 d
0b
b100 c
b100 \
b10011011 1
#1220000
b11001 (
b11001 >
b100 '
b100 =
b100 ?
1*
b10001 _
1b
b10011110 1
#1240000
b10 )
b10 ;
b10 %
b10 <
b10 B
b10 I
b10 M
b101 K
b101 @
b101 $
b101 A
b101 E
b101 G
b101 L
b101 T
1Q
b100100 (
b100100 >
b11001 N
b10 '
b10 =
b10 ?
0*
b1001 #
b1001 H
b1001 O
b1001 ,
b1001 F
b1001 J
b1001 P
b1001 _
b100 d
0b
b101 c
b101 \
b10100001 1
#1260000
b10010 (
b10010 >
b101 '
b101 =
b101 ?
1*
b1001 _
1b
b10100100 1
#1280000
b10 )
b10 ;
b10 %
b10 <
b10 B
b10 I
b10 M
0Q
1R
b110 K
b110 @
b110 $
b110 A
b110 E
b110 G
b110 L
b110 T
1S
b100100 (
b100100 >
b11001 N
b10 '
b10 =
b10 ?
0*
b111001 #
b111001 H
b111001 O
b111001 ,
b111001 F
b111001 J
b111001 P
b111001 _
b101 d
0b
b110 c
b110 \
b10100111 1
#1300000
b10 (
b10 >
b110 '
b110 =
b110 ?
1*
b111001 _
1b
b10101010 1
#1320000
b10 )
b10 ;
b10 %
b10 <
b10 B
b10 I
b10 M
b100100 (
b100100 >
b11001 N
1Q
1R
b111 K
b111 @
b111 $
b111 A
b111 E
b111 G
b111 L
b111 T
1S
b10 '
b10 =
b10 ?
0*
b1011001 #
b1011001 H
b1011001 O
b1011001 ,
b1011001 F
b1011001 J
b1011001 P
b1011001 _
b110 d
0b
b111 c
b111 \
b10101101 1
#1340000
b1111000 (
b1111000 >
b111 '
b111 =
b111 ?
1*
b1011001 _
1b
b10110000 1
#1360000
b11 )
b11 ;
b11 %
b11 <
b11 B
b11 I
b11 M
b110000 (
b110000 >
b11110 N
0Q
0R
b0 K
b0 @
b0 $
b0 A
b0 E
b0 G
b0 L
b0 T
0S
b11 '
b11 =
b11 ?
0*
b11110 #
b11110 H
b11110 O
b11110 ,
b11110 F
b11110 J
b11110 P
b11 a
b11110 _
b11110 ^
19
08
13
b11 7
0b
b0 c
b11 `
b11 [
b1000 \
b10110011 1
#1380000
b1 K
b1 @
b1 $
b1 A
b1 E
b1 G
b1 L
b1 T
1Q
b11110 N
b11111 #
b11111 H
b11111 O
b11111 ,
b11111 F
b11111 J
b11111 P
b11111 _
b0 d
b1 c
b1 \
b10110110 1
#1400000
b1111001 (
b1111001 >
b1 '
b1 =
b1 ?
1*
b11111 _
1b
b10111001 1
#1420000
0Q
b10 K
b10 @
b10 $
b10 A
b10 E
b10 G
b10 L
b10 T
1R
b110000 (
b110000 >
b11110 N
b11 '
b11 =
b11 ?
0*
b11100 #
b11100 H
b11100 O
b11100 ,
b11100 F
b11100 J
b11100 P
b11100 _
b1 d
0b
b10 c
b10 \
b10111100 1
#1440000
b100100 (
b100100 >
b10 '
b10 =
b10 ?
1*
b11100 _
1b
b10111111 1
#1460000
b11 K
b11 @
b11 $
b11 A
b11 E
b11 G
b11 L
b11 T
1Q
b11 )
b11 ;
b11 %
b11 <
b11 B
b11 I
b11 M
b110000 (
b110000 >
b11110 N
b11 '
b11 =
b11 ?
0*
b11010 #
b11010 H
b11010 O
b11010 ,
b11010 F
b11010 J
b11010 P
b11010 _
b10 d
0b
b11 c
b11 \
b11000010 1
#1480000
1*
b11010 _
1b
b11000101 1
#1500000
b110000 (
b110000 >
b11 '
b11 =
b11 ?
b11 )
b11 ;
b11 %
b11 <
b11 B
b11 I
b11 M
0Q
0R
b100 K
b100 @
b100 $
b100 A
b100 E
b100 G
b100 L
b100 T
1S
b11110 N
0*
b10110 #
b10110 H
b10110 O
b10110 ,
b10110 F
b10110 J
b10110 P
b10110 _
b11 d
0b
b100 c
b100 \
b11001000 1
#1520000
b11001 (
b11001 >
b100 '
b100 =
b100 ?
1*
b10110 _
1b
b11001011 1
#1540000
b11 )
b11 ;
b11 %
b11 <
b11 B
b11 I
b11 M
b101 K
b101 @
b101 $
b101 A
b101 E
b101 G
b101 L
b101 T
1Q
b110000 (
b110000 >
b11110 N
b11 '
b11 =
b11 ?
0*
b1110 #
b1110 H
b1110 O
b1110 ,
b1110 F
b1110 J
b1110 P
b1110 _
b100 d
0b
b101 c
b101 \
b11001110 1
#1560000
b10010 (
b10010 >
b101 '
b101 =
b101 ?
1*
b1110 _
1b
b11010001 1
#1580000
b11 )
b11 ;
b11 %
b11 <
b11 B
b11 I
b11 M
0Q
1R
b110 K
b110 @
b110 $
b110 A
b110 E
b110 G
b110 L
b110 T
1S
b110000 (
b110000 >
b11110 N
b11 '
b11 =
b11 ?
0*
b111110 #
b111110 H
b111110 O
b111110 ,
b111110 F
b111110 J
b111110 P
b111110 _
b101 d
0b
b110 c
b110 \
b11010100 1
#1600000
b10 (
b10 >
b110 '
b110 =
b110 ?
1*
b111110 _
1b
b11010111 1
#1620000
b11 )
b11 ;
b11 %
b11 <
b11 B
b11 I
b11 M
b110000 (
b110000 >
b11110 N
1Q
1R
b111 K
b111 @
b111 $
b111 A
b111 E
b111 G
b111 L
b111 T
1S
b11 '
b11 =
b11 ?
0*
b1011110 #
b1011110 H
b1011110 O
b1011110 ,
b1011110 F
b1011110 J
b1011110 P
b1011110 _
b110 d
0b
b111 c
b111 \
b11011010 1
#1640000
b1111000 (
b1111000 >
b111 '
b111 =
b111 ?
1*
b1011110 _
1b
b11011101 1
#1660000
b100 )
b100 ;
b100 %
b100 <
b100 B
b100 I
b100 M
b11001 (
b11001 >
b101010 N
0Q
0R
b0 K
b0 @
b0 $
b0 A
b0 E
b0 G
b0 L
b0 T
0S
b100 '
b100 =
b100 ?
0*
b101010 #
b101010 H
b101010 O
b101010 ,
b101010 F
b101010 J
b101010 P
b100 a
b101010 _
b101010 ^
15
04
03
b100 7
0b
b0 c
b100 `
b100 [
b1000 \
b11100000 1
#1680000
b1 K
b1 @
b1 $
b1 A
b1 E
b1 G
b1 L
b1 T
1Q
b101010 N
b101011 #
b101011 H
b101011 O
b101011 ,
b101011 F
b101011 J
b101011 P
b101011 _
b0 d
b1 c
b1 \
b11100011 1
#1700000
b1111001 (
b1111001 >
b1 '
b1 =
b1 ?
1*
b101011 _
1b
b11100110 1
#1720000
0Q
b10 K
b10 @
b10 $
b10 A
b10 E
b10 G
b10 L
b10 T
1R
b11001 (
b11001 >
b101010 N
b100 '
b100 =
b100 ?
0*
b101000 #
b101000 H
b101000 O
b101000 ,
b101000 F
b101000 J
b101000 P
b101000 _
b1 d
0b
b10 c
b10 \
b11101001 1
#1740000
b100100 (
b100100 >
b10 '
b10 =
b10 ?
1*
b101000 _
1b
b11101100 1
#1760000
b11 K
b11 @
b11 $
b11 A
b11 E
b11 G
b11 L
b11 T
1Q
b100 )
b100 ;
b100 %
b100 <
b100 B
b100 I
b100 M
b11001 (
b11001 >
b101010 N
b100 '
b100 =
b100 ?
0*
b101110 #
b101110 H
b101110 O
b101110 ,
b101110 F
b101110 J
b101110 P
b101110 _
b10 d
0b
b11 c
b11 \
b11101111 1
#1780000
b110000 (
b110000 >
b11 '
b11 =
b11 ?
1*
b101110 _
1b
b11110010 1
#1800000
b100 )
b100 ;
b100 %
b100 <
b100 B
b100 I
b100 M
0Q
0R
b100 K
b100 @
b100 $
b100 A
b100 E
b100 G
b100 L
b100 T
1S
b11001 (
b11001 >
b101010 N
b100 '
b100 =
b100 ?
0*
b100010 #
b100010 H
b100010 O
b100010 ,
b100010 F
b100010 J
b100010 P
b100010 _
b11 d
0b
b100 c
b100 \
b11110101 1
#1820000
1*
b100010 _
1b
b11111000 1
#1840000
b11001 (
b11001 >
b100 '
b100 =
b100 ?
b100 )
b100 ;
b100 %
b100 <
b100 B
b100 I
b100 M
b101 K
b101 @
b101 $
b101 A
b101 E
b101 G
b101 L
b101 T
1Q
b101010 N
0*
b111010 #
b111010 H
b111010 O
b111010 ,
b111010 F
b111010 J
b111010 P
b111010 _
b100 d
0b
b101 c
b101 \
b11111011 1
#1860000
b10010 (
b10010 >
b101 '
b101 =
b101 ?
1*
b111010 _
1b
b11111110 1
#1880000
b100 )
b100 ;
b100 %
b100 <
b100 B
b100 I
b100 M
0Q
1R
b110 K
b110 @
b110 $
b110 A
b110 E
b110 G
b110 L
b110 T
1S
b11001 (
b11001 >
b101010 N
b100 '
b100 =
b100 ?
0*
b1010 #
b1010 H
b1010 O
b1010 ,
b1010 F
b1010 J
b1010 P
b1010 _
b101 d
0b
b110 c
b110 \
b100000001 1
#1900000
b10 (
b10 >
b110 '
b110 =
b110 ?
1*
b1010 _
1b
b100000100 1
#1920000
b100 )
b100 ;
b100 %
b100 <
b100 B
b100 I
b100 M
b11001 (
b11001 >
b101010 N
1Q
1R
b111 K
b111 @
b111 $
b111 A
b111 E
b111 G
b111 L
b111 T
1S
b100 '
b100 =
b100 ?
0*
b1101010 #
b1101010 H
b1101010 O
b1101010 ,
b1101010 F
b1101010 J
b1101010 P
b1101010 _
b110 d
0b
b111 c
b111 \
b100000111 1
#1940000
b1111000 (
b1111000 >
b111 '
b111 =
b111 ?
1*
b1101010 _
1b
b100001010 1
#1960000
b101 )
b101 ;
b101 %
b101 <
b101 B
b101 I
b101 M
b10010 (
b10010 >
b101101 N
0Q
0R
b0 K
b0 @
b0 $
b0 A
b0 E
b0 G
b0 L
b0 T
0S
b101 '
b101 =
b101 ?
0*
b101101 #
b101101 H
b101101 O
b101101 ,
b101101 F
b101101 J
b101101 P
b101 a
b101101 _
b101101 ^
09
18
13
b101 7
0b
b0 c
b101 `
b101 [
b1000 \
b100001101 1
#1980000
b1 K
b1 @
b1 $
b1 A
b1 E
b1 G
b1 L
b1 T
1Q
b101101 N
b101100 #
b101100 H
b101100 O
b101100 ,
b101100 F
b101100 J
b101100 P
b101100 _
b0 d
b1 c
b1 \
b100010000 1
#2000000
b1111001 (
b1111001 >
b1 '
b1 =
b1 ?
1*
b101100 _
1b
b100010011 1
#2020000
0Q
b10 K
b10 @
b10 $
b10 A
b10 E
b10 G
b10 L
b10 T
1R
b10010 (
b10010 >
b101101 N
b101 '
b101 =
b101 ?
0*
b101111 #
b101111 H
b101111 O
b101111 ,
b101111 F
b101111 J
b101111 P
b101111 _
b1 d
0b
b10 c
b10 \
b100010110 1
#2040000
b100100 (
b100100 >
b10 '
b10 =
b10 ?
1*
b101111 _
1b
b100011001 1
#2060000
b11 K
b11 @
b11 $
b11 A
b11 E
b11 G
b11 L
b11 T
1Q
b101 )
b101 ;
b101 %
b101 <
b101 B
b101 I
b101 M
b10010 (
b10010 >
b101101 N
b101 '
b101 =
b101 ?
0*
b101001 #
b101001 H
b101001 O
b101001 ,
b101001 F
b101001 J
b101001 P
b101001 _
b10 d
0b
b11 c
b11 \
b100011100 1
#2080000
b110000 (
b110000 >
b11 '
b11 =
b11 ?
1*
b101001 _
1b
b100011111 1
#2100000
b101 )
b101 ;
b101 %
b101 <
b101 B
b101 I
b101 M
0Q
0R
b100 K
b100 @
b100 $
b100 A
b100 E
b100 G
b100 L
b100 T
1S
b10010 (
b10010 >
b101101 N
b101 '
b101 =
b101 ?
0*
b100101 #
b100101 H
b100101 O
b100101 ,
b100101 F
b100101 J
b100101 P
b100101 _
b11 d
0b
b100 c
b100 \
b100100010 1
#2120000
b11001 (
b11001 >
b100 '
b100 =
b100 ?
1*
b100101 _
1b
b100100101 1
#2140000
b101 )
b101 ;
b101 %
b101 <
b101 B
b101 I
b101 M
b101 K
b101 @
b101 $
b101 A
b101 E
b101 G
b101 L
b101 T
1Q
b10010 (
b10010 >
b101101 N
b101 '
b101 =
b101 ?
0*
b111101 #
b111101 H
b111101 O
b111101 ,
b111101 F
b111101 J
b111101 P
b111101 _
b100 d
0b
b101 c
b101 \
b100101000 1
#2160000
1*
b111101 _
1b
b100101011 1
